-------------------------------------------------------------------------------
Test set: com.phoenix.userservices.UserServicesApplicationTests
-------------------------------------------------------------------------------
Tests run: 0, Failures: 0, Errors: 0, Skipped: 0, Time elapsed: 0.004 s - in com.phoenix.userservices.UserServicesApplicationTests
