/Users/saudagarchaudhary/Documents/workspace-sts-3.9.9.RELEASE/bts-panthomath-service/src/main/java/com/panthomath/service/exception/BaseException.java
/Users/saudagarchaudhary/Documents/workspace-sts-3.9.9.RELEASE/bts-panthomath-service/src/main/java/com/panthomath/service/exception/ValidationException.java
/Users/saudagarchaudhary/Documents/workspace-sts-3.9.9.RELEASE/bts-panthomath-service/src/main/java/com/panthomath/service/dto/InputUserDetailsDto.java
/Users/saudagarchaudhary/Documents/workspace-sts-3.9.9.RELEASE/bts-panthomath-service/src/main/java/com/panthomath/service/dto/ValidationMessageDto.java
/Users/saudagarchaudhary/Documents/workspace-sts-3.9.9.RELEASE/bts-panthomath-service/src/main/java/com/panthomath/service/repository/IUserMasterRepository.java
/Users/saudagarchaudhary/Documents/workspace-sts-3.9.9.RELEASE/bts-panthomath-service/src/main/java/com/panthomath/service/mapper/UserMgmtMapper.java
/Users/saudagarchaudhary/Documents/workspace-sts-3.9.9.RELEASE/bts-panthomath-service/src/main/java/com/panthomath/service/service/IUserMgmtService.java
/Users/saudagarchaudhary/Documents/workspace-sts-3.9.9.RELEASE/bts-panthomath-service/src/main/java/com/panthomath/service/dto/OutputUserDetailsDto.java
/Users/saudagarchaudhary/Documents/workspace-sts-3.9.9.RELEASE/bts-panthomath-service/src/main/java/com/panthomath/service/dto/OutputResponseDto.java
/Users/saudagarchaudhary/Documents/workspace-sts-3.9.9.RELEASE/bts-panthomath-service/src/main/java/com/panthomath/service/messages/Messages.java
/Users/saudagarchaudhary/Documents/workspace-sts-3.9.9.RELEASE/bts-panthomath-service/src/main/java/com/panthomath/service/config/SwaggerConfig.java
/Users/saudagarchaudhary/Documents/workspace-sts-3.9.9.RELEASE/bts-panthomath-service/src/main/java/com/panthomath/service/model/TbUserMaster.java
/Users/saudagarchaudhary/Documents/workspace-sts-3.9.9.RELEASE/bts-panthomath-service/src/main/java/com/panthomath/service/controller/UserRegistrationController.java
/Users/saudagarchaudhary/Documents/workspace-sts-3.9.9.RELEASE/bts-panthomath-service/src/main/java/com/panthomath/service/UserServicesApplication.java
/Users/saudagarchaudhary/Documents/workspace-sts-3.9.9.RELEASE/bts-panthomath-service/src/main/java/com/panthomath/service/service/UserMgmtServiceImpl.java
